

--------------------- 3 BỘ FULL 6 CUỐN SÁCH ------------------

- Quản lý dự án phần mềm: 3
- Nhập môn Java: 3
- Lập trình ứng dụng web: 3
- Kỹ năng tư duy sáng tạo và quản lý thời gia: 3
- Phân tích thiết kế hướng đối tượng: 3
- Công cụ phát triển phần mềm: 3

--------------------- 2 BỘ 4 CUỐN SÁCH ------------------------

-  Quản lý dự án phần mềm: 2
-  Nhập môn Java: 2
-  Lập trình ứng dụng web: 2
-  Công cụ phát triển phần mềm: 2
=> Thiếu 1 cuốn kỹ năng tư duy sáng tạo và ql time, 1 cuốn
   phân tích thiết kế đối tượng

--------------------- 1 BỘ 4 CUỐN SÁCH ------------------------

-  Công cụ phát triển phần mềm: 1
-  Phân tích thiết kế hướng đối tượng: 1
-  Nhập môn Java: 1
-  Quản lý dự án phần mềm: 1
=> Thiếu 1 cuốn kỹ năng tư duy sáng tạo và ql time, 1 cuốn
   lập trình web

Ghi chú: Còn dư 1 cuốn tư tưởng HCM và 1 cuốn lâp trình C#

Trong danh sách còn Đảm, Gia Bảo, Ngọc Duy, Ng Trần Minh Khang,
Đình Thuận, Đăng Trường, Mai Anh Tú chưa kí tên trong danh sách
đồng nghĩa chưa nhận sách nhé
-------------------------------------------------------------------



